{
  "AlertManagementIntegration": [
    "AlertManagementHttpIntegration",
    "AlertManagementPrometheusIntegration"
  ],
  "AmazonS3ConfigurationInterface": [
    "AmazonS3ConfigurationType",
    "InstanceAmazonS3ConfigurationType"
  ],
  "BaseHeaderInterface": [
    "AuditEventStreamingHeader",
    "AuditEventsStreamingInstanceHeader"
  ],
  "CiVariable": [
    "CiGroupVariable",
    "CiInstanceVariable",
    "CiManualVariable",
    "CiProjectVariable",
    "PipelineScheduleVariable"
  ],
  "CommitSignature": [
    "GpgSignature",
    "SshSignature",
    "X509Signature"
  ],
  "CurrentUserTodos": [
    "BoardEpic",
    "Design",
    "Epic",
    "EpicIssue",
    "Issue",
    "MergeRequest",
    "WorkItemWidgetCurrentUserTodos"
  ],
  "DependencyLinkMetadata": [
    "NugetDependencyLinkMetadata"
  ],
  "DesignFields": [
    "Design",
    "DesignAtVersion"
  ],
  "Entry": [
    "Blob",
    "Submodule",
    "TreeEntry"
  ],
  "Eventable": [
    "BoardEpic",
    "Epic"
  ],
  "ExternalAuditEventDestinationInterface": [
    "ExternalAuditEventDestination",
    "InstanceExternalAuditEventDestination"
  ],
  "GoogleCloudLoggingConfigurationInterface": [
    "GoogleCloudLoggingConfigurationType",
    "InstanceGoogleCloudLoggingConfigurationType"
  ],
  "Issuable": [
    "Epic",
    "Issue",
    "MergeRequest",
    "WorkItem"
  ],
  "JobNeedUnion": [
    "CiBuildNeed",
    "CiJob"
  ],
  "MemberInterface": [
    "GroupMember",
    "PendingGroupMember",
    "ProjectMember"
  ],
  "NoteableInterface": [
    "AbuseReport",
    "AlertManagementAlert",
    "BoardEpic",
    "Design",
    "Epic",
    "EpicIssue",
    "Issue",
    "MergeRequest",
    "Snippet",
    "Vulnerability"
  ],
  "NoteableType": [
    "Design",
    "Issue",
    "MergeRequest"
  ],
  "OrchestrationPolicy": [
    "ScanExecutionPolicy",
    "ScanResultPolicy"
  ],
  "PackageFileMetadata": [
    "ConanFileMetadata",
    "HelmFileMetadata"
  ],
  "PackageMetadata": [
    "ComposerMetadata",
    "ConanMetadata",
    "MavenMetadata",
    "NugetMetadata",
    "PypiMetadata"
  ],
  "Registrable": [
    "CiSecureFileRegistry",
    "ContainerRepositoryRegistry",
    "DependencyProxyBlobRegistry",
    "DependencyProxyManifestRegistry",
    "DesignManagementRepositoryRegistry",
    "GroupWikiRepositoryRegistry",
    "JobArtifactRegistry",
    "LfsObjectRegistry",
    "MergeRequestDiffRegistry",
    "PackageFileRegistry",
    "PagesDeploymentRegistry",
    "PipelineArtifactRegistry",
    "ProjectWikiRepositoryRegistry",
    "SnippetRepositoryRegistry",
    "TerraformStateVersionRegistry",
    "UploadRegistry"
  ],
  "ResolvableInterface": [
    "Discussion",
    "Note"
  ],
  "SecurityPolicySource": [
    "GroupSecurityPolicySource",
    "ProjectSecurityPolicySource"
  ],
  "Service": [
    "BaseService",
    "JiraService"
  ],
  "TimeboxReportInterface": [
    "Iteration",
    "Milestone"
  ],
  "Todoable": [
    "AlertManagementAlert",
    "BoardEpic",
    "Commit",
    "Design",
    "Epic",
    "EpicIssue",
    "Issue",
    "MergeRequest",
    "WorkItem"
  ],
  "User": [
    "AddOnUser",
    "AutocompletedUser",
    "CurrentUser",
    "MergeRequestAssignee",
    "MergeRequestAuthor",
    "MergeRequestParticipant",
    "MergeRequestReviewer",
    "UserCore"
  ],
  "VulnerabilityDetail": [
    "VulnerabilityDetailBase",
    "VulnerabilityDetailBoolean",
    "VulnerabilityDetailCode",
    "VulnerabilityDetailCommit",
    "VulnerabilityDetailDiff",
    "VulnerabilityDetailFileLocation",
    "VulnerabilityDetailInt",
    "VulnerabilityDetailList",
    "VulnerabilityDetailMarkdown",
    "VulnerabilityDetailModuleLocation",
    "VulnerabilityDetailNamedList",
    "VulnerabilityDetailTable",
    "VulnerabilityDetailText",
    "VulnerabilityDetailUrl"
  ],
  "VulnerabilityLocation": [
    "VulnerabilityLocationClusterImageScanning",
    "VulnerabilityLocationContainerScanning",
    "VulnerabilityLocationCoverageFuzzing",
    "VulnerabilityLocationDast",
    "VulnerabilityLocationDependencyScanning",
    "VulnerabilityLocationGeneric",
    "VulnerabilityLocationSast",
    "VulnerabilityLocationSecretDetection"
  ],
  "WorkItemWidget": [
    "WorkItemWidgetAssignees",
    "WorkItemWidgetAwardEmoji",
    "WorkItemWidgetColor",
    "WorkItemWidgetCurrentUserTodos",
    "WorkItemWidgetDescription",
    "WorkItemWidgetHealthStatus",
    "WorkItemWidgetHierarchy",
    "WorkItemWidgetIteration",
    "WorkItemWidgetLabels",
    "WorkItemWidgetLinkedItems",
    "WorkItemWidgetMilestone",
    "WorkItemWidgetNotes",
    "WorkItemWidgetNotifications",
    "WorkItemWidgetParticipants",
    "WorkItemWidgetProgress",
    "WorkItemWidgetRequirementLegacy",
    "WorkItemWidgetRolledupDates",
    "WorkItemWidgetStartAndDueDate",
    "WorkItemWidgetStatus",
    "WorkItemWidgetTestReports",
    "WorkItemWidgetWeight"
  ],
  "WorkItemWidgetDefinition": [
    "WorkItemWidgetDefinitionAssignees",
    "WorkItemWidgetDefinitionGeneric",
    "WorkItemWidgetDefinitionHierarchy",
    "WorkItemWidgetDefinitionLabels"
  ]
}
